{
    "key": "group_573f1fffe73e1",
    "title": "Global Helpers",
    "fields": [
        {
            "key": "field_573f2010bb6fc",
            "label": "Opportunity Helpers",
            "name": "",
            "type": "tab",
            "instructions": "",
            "required": 0,
            "conditional_logic": 0,
            "wrapper": {
                "width": "",
                "class": "",
                "id": ""
            },
            "placement": "top",
            "endpoint": 0
        },
        {
            "key": "field_573f202ebb6fd",
            "label": "Opportunity Application Disclaimer",
            "name": "opportunity_application_disclaimer",
            "type": "wysiwyg",
            "instructions": "Displayed after the application form on all opportunities.",
            "required": 0,
            "conditional_logic": 0,
            "wrapper": {
                "width": "",
                "class": "",
                "id": ""
            },
            "default_value": "",
            "tabs": "all",
            "toolbar": "full",
            "media_upload": 1
        }
    ],
    "location": [
        [
            {
                "param": "options_page",
                "operator": "==",
                "value": "acf-options-manifest-solutions-globals"
            }
        ]
    ],
    "menu_order": 10,
    "position": "normal",
    "style": "default",
    "label_placement": "top",
    "instruction_placement": "label",
    "hide_on_screen": "",
    "active": 1,
    "description": "",
    "modified": 1463754858
}