{
    "key": "group_5735d94c499b2",
    "title": "Event Fields",
    "fields": [
        {
            "key": "field_5735d97d96c80",
            "label": "Date(s) & Time(s)",
            "name": "dates",
            "type": "message",
            "instructions": "",
            "required": 0,
            "conditional_logic": 0,
            "wrapper": {
                "width": "",
                "class": "",
                "id": ""
            },
            "message": "Please provide the date(s) and time(s) for this event.",
            "new_lines": "wpautop",
            "esc_html": 0
        },
        {
            "key": "field_573c7cead687c",
            "label": "Start Date",
            "name": "start_date",
            "type": "date_picker",
            "instructions": "",
            "required": 1,
            "conditional_logic": 0,
            "wrapper": {
                "width": "",
                "class": "",
                "id": ""
            },
            "display_format": "m\/d\/Y",
            "return_format": "F j, Y",
            "first_day": 1
        },
        {
            "key": "field_573c7d23d687d",
            "label": "End Date",
            "name": "end_date",
            "type": "date_picker",
            "instructions": "",
            "required": 0,
            "conditional_logic": 0,
            "wrapper": {
                "width": "",
                "class": "",
                "id": ""
            },
            "display_format": "m\/d\/Y",
            "return_format": "F j, Y",
            "first_day": 1
        },
        {
            "key": "field_5735de4ca13b8",
            "label": "Location",
            "name": "",
            "type": "message",
            "instructions": "",
            "required": 0,
            "conditional_logic": 0,
            "wrapper": {
                "width": "",
                "class": "",
                "id": ""
            },
            "message": "Where will this event take place?",
            "new_lines": "wpautop",
            "esc_html": 0
        },
        {
            "key": "field_573c861e6f095",
            "label": "Location Display Name",
            "name": "location_display_name",
            "type": "text",
            "instructions": "What users will see on event listings.",
            "required": 1,
            "conditional_logic": 0,
            "wrapper": {
                "width": "",
                "class": "",
                "id": ""
            },
            "default_value": "",
            "placeholder": "",
            "prepend": "",
            "append": "",
            "maxlength": "",
            "readonly": 0,
            "disabled": 0
        }
    ],
    "location": [
        [
            {
                "param": "post_type",
                "operator": "==",
                "value": "event"
            }
        ]
    ],
    "menu_order": 0,
    "position": "side",
    "style": "default",
    "label_placement": "top",
    "instruction_placement": "label",
    "hide_on_screen": "",
    "active": 1,
    "description": "",
    "modified": 1468357503
}